lab-fir/fir/vvd_fir/project_1/project_1.sim/sim_1/behav/xsim/fir.vcd
$date
   Thu Oct 19 12:44:16 2023
$end
$version
  2022.1
$end
$timescale
  1ps
$end
$scope module fir_tb $end
$var wire 1 ! awready $end
$var wire 1 " wready $end
$var reg 1 # awvalid $end
$var reg 12 $ awaddr [11:0] $end
$var reg 1 % wvalid $end
$var reg 32 & wdata [31:0] $end
$var wire 1 ' arready $end
$var reg 1 ( rready $end
$var reg 1 ) arvalid $end
$var reg 12 * araddr [11:0] $end
$var wire 1 + rvalid $end
$var wire 32 , rdata [31:0] $end
$var reg 1 - ss_tvalid $end
$var reg 32 . ss_tdata [31:0] $end
$var reg 1 / ss_tlast $end
$var wire 1 0 ss_tready $end
$var reg 1 1 sm_tready $end
$var wire 1 2 sm_tvalid $end
$var wire 32 3 sm_tdata [31:0] $end
$var wire 1 4 sm_tlast $end
$var reg 1 5 axis_clk $end
$var reg 1 6 axis_rst_n $end
$var wire 4 7 tap_WE [3:0] $end
$var wire 1 8 tap_EN $end
$var wire 32 9 tap_Di [31:0] $end
$var wire 12 : tap_A [11:0] $end
$var wire 32 ; tap_Do [31:0] $end
$var wire 4 < data_WE [3:0] $end
$var wire 1 = data_EN $end
$var wire 32 > data_Di [31:0] $end
$var wire 12 ? data_A [11:0] $end
$var wire 32 @ data_Do [31:0] $end
$var reg 32 A data_length [31:0] $end
$var integer 32 B Din [31:0] $end
$var integer 32 C golden [31:0] $end
$var integer 32 D input_data [31:0] $end
$var integer 32 E golden_data [31:0] $end
$var integer 32 F m [31:0] $end
$var integer 32 G i [31:0] $end
$var reg 1 H error_coef $end
$var integer 32 I k [31:0] $end
$var reg 1 J error $end
$var reg 1 K status_error $end
$var integer 32 L timeout [31:0] $end
$scope module fir_DUT $end
$var wire 1 ! awready $end
$var wire 1 " wready $end
$var wire 1 M awvalid $end
$var wire 12 N awaddr [11:0] $end
$var wire 1 O wvalid $end
$var wire 32 P wdata [31:0] $end
$var wire 1 ' arready $end
$var wire 1 Q rready $end
$var wire 1 R arvalid $end
$var wire 12 S araddr [11:0] $end
$var wire 1 + rvalid $end
$var wire 32 , rdata [31:0] $end
$var wire 1 T ss_tvalid $end
$var wire 32 U ss_tdata [31:0] $end
$var wire 1 V ss_tlast $end
$var wire 1 0 ss_tready $end
$var wire 1 W sm_tready $end
$var wire 1 2 sm_tvalid $end
$var wire 32 3 sm_tdata [31:0] $end
$var wire 1 4 sm_tlast $end
$var reg 4 X tap_WE [3:0] $end
$var reg 1 Y tap_EN $end
$var reg 32 Z tap_Di [31:0] $end
$var reg 12 [ tap_A [11:0] $end
$var wire 32 ; tap_Do [31:0] $end
$var reg 4 \ data_WE [3:0] $end
$var reg 1 ] data_EN $end
$var reg 32 ^ data_Di [31:0] $end
$var reg 12 _ data_A [11:0] $end
$var wire 32 @ data_Do [31:0] $end
$var wire 1 ` axis_clk $end
$var wire 1 a axis_rst_n $end
$var wire 1 b \genblk1.ap_start  $end
$var wire 32 c \genblk1.XferLength  [31:0] $end
$var wire 1 d \genblk1.ap_done  $end
$var wire 1 e \genblk1.ap_idle  $end
$var wire 1 f \genblk1.reset_ap_start  $end
$var wire 12 g \genblk1.data_A_Xferloop  [11:0] $end
$var wire 1 h \genblk1.data_EN_Xferloop  $end
$var wire 4 i \genblk1.data_WE_Xferloop  [3:0] $end
$var wire 32 j \genblk1.data_Di_Xferloop  [31:0] $end
$var wire 12 k \genblk1.tap_A_axi_lite  [11:0] $end
$var wire 1 l \genblk1.tap_EN_axi_lite  $end
$var wire 4 m \genblk1.tap_WE_axi_lite  [3:0] $end
$var wire 32 n \genblk1.tap_Di_axi_lite  [31:0] $end
$var wire 12 o \genblk1.tap_A_Xferloop  [11:0] $end
$var wire 1 p \genblk1.tap_EN_Xferloop  $end
$var wire 4 q \genblk1.tap_WE_Xferloop  [3:0] $end
$var reg 1 r \genblk1.ss_running  $end
$scope module genblk1.axi_lite_control_U0 $end
$var wire 1 ` clk $end
$var wire 1 a rst_n $end
$var wire 1 M awvalid $end
$var wire 12 N awaddr [11:0] $end
$var wire 1 O wvalid $end
$var wire 32 P wdata [31:0] $end
$var wire 1 R arvalid $end
$var wire 12 S araddr [11:0] $end
$var wire 1 Q rready $end
$var wire 1 ! awready $end
$var wire 1 " wready $end
$var wire 1 ' arready $end
$var wire 1 + rvalid $end
$var reg 32 s rdata [31:0] $end
$var wire 32 c XferLength [31:0] $end
$var wire 4 m tap_WE [3:0] $end
$var wire 1 l tap_EN $end
$var wire 32 n tap_Di [31:0] $end
$var wire 12 k tap_A [11:0] $end
$var wire 32 ; tap_Do [31:0] $end
$var wire 1 b ap_start $end
$var wire 1 f reset_ap_start $end
$var wire 1 d ap_done $end
$var wire 1 e ap_idle $end
$var reg 2 t wstate_r [1:0] $end
$var reg 2 u wstate_w [1:0] $end
$var reg 12 v waddr_r [11:0] $end
$var wire 1 w aw_hs $end
$var wire 1 x w_hs $end
$var reg 2 y rstate_r [1:0] $end
$var reg 2 z rstate_w [1:0] $end
$var wire 1 { ar_hs $end
$var wire 1 | r_hs $end
$var reg 1 } an32Coef_read_r $end
$var reg 1 ~ an32Coef_read_r_d1 $end
$var reg 1 !! an32Coef_write_r $end
$var reg 1 "! ap_start_r $end
$var reg 32 #! XferLeng_r [31:0] $end
$var reg 1 $! ap_done_r $end
$var reg 1 %! ap_idle_r $end
$upscope $end
$scope module genblk1.Xferloop_U0 $end
$var wire 1 ` clk $end
$var wire 1 a rst_n $end
$var wire 1 T ss_tvalid $end
$var wire 32 U ss_tdata [31:0] $end
$var wire 1 V ss_tlast $end
$var wire 1 0 ss_tready $end
$var wire 1 W sm_tready $end
$var wire 1 2 sm_tvalid $end
$var reg 32 &! sm_tdata [31:0] $end
$var wire 1 4 sm_tlast $end
$var wire 32 c XferLength [31:0] $end
$var wire 4 i data_WE [3:0] $end
$var wire 1 h data_EN $end
$var wire 32 j data_Di [31:0] $end
$var wire 12 g data_A [11:0] $end
$var wire 32 @ data_Do [31:0] $end
$var wire 4 q tap_WE [3:0] $end
$var wire 1 p tap_EN $end
$var wire 12 o tap_A [11:0] $end
$var wire 32 ; tap_Do [31:0] $end
$var wire 1 b ap_start $end
$var reg 1 '! reset_ap_start $end
$var wire 1 d ap_done $end
$var reg 1 (! ap_idle $end
$var reg 4 )! cnt_r [3:0] $end
$var reg 4 *! shift_r [3:0] $end
$var reg 10 +! sm_hs_cnt_r [9:0] $end
$var wire 1 ,! ss_hs $end
$var reg 1 -! ss_hs_d1 $end
$var reg 1 .! ss_hs_d2 $end
$var reg 1 /! ss_hs_d3 $end
$var wire 1 0! ss_data $end
$var reg 1 1! ss_data_d1 $end
$var reg 1 2! ss_data_d2 $end
$var reg 1 3! ss_data_d3 $end
$var wire 1 4! data_11 $end
$var reg 1 5! data_11_d1 $end
$var reg 1 6! data_11_d2 $end
$var reg 1 7! data_11_d3 $end
$var wire 1 8! sm_hs $end
$var reg 2 9! ss_state_r [1:0] $end
$var reg 2 :! ss_state_w [1:0] $end
$var reg 2 ;! sm_state_r [1:0] $end
$var reg 2 <! sm_state_w [1:0] $end
$var reg 32 =! ss_tdata_d1 [31:0] $end
$var reg 32 >! ss_tdata_d2 [31:0] $end
$var reg 32 ?! data [31:0] $end
$var reg 32 @! tap [31:0] $end
$var reg 32 A! acc [31:0] $end
$var reg 32 B! acc_w [31:0] $end
$var wire 64 C! mul [63:0] $end
$var reg 1 D! last_data $end
$upscope $end
$upscope $end
$scope module tap_RAM $end
$var wire 1 E! CLK $end
$var wire 4 7 WE [3:0] $end
$var wire 1 8 EN $end
$var wire 32 9 Di [31:0] $end
$var wire 32 ; Do [31:0] $end
$var wire 12 : A [11:0] $end
$var reg 12 F! r_A [11:0] $end
$var reg 32 G! Temp_D [31:0] $end
$upscope $end
$scope module data_RAM $end
$var wire 1 H! CLK $end
$var wire 4 < WE [3:0] $end
$var wire 1 = EN $end
$var wire 32 > Di [31:0] $end
$var wire 32 @ Do [31:0] $end
$var wire 12 ? A [11:0] $end
$var reg 12 I! r_A [11:0] $end
$var reg 32 J! Temp_D [31:0] $end
$upscope $end
$scope task config_write $end
$var reg 12 K! addr [11:0] $end
$var reg 32 L! data [31:0] $end
$upscope $end
$scope task config_read_check $end
$var reg 12 M! addr [11:0] $end
$var reg 32 N! exp_data [31:0] $end
$var reg 32 O! mask [31:0] $end
$upscope $end
$scope task ss $end
$var reg 32 P! in1 [31:0] $end
$upscope $end
$scope task sm $end
$var reg 32 Q! in2 [31:0] $end
$var reg 32 R! pcnt [31:0] $end
$upscope $end
$upscope $end
$enddefinitions $end
#0
$dumpvars
0!
0!!
0"
0"!
0#
b0 #!
bx $
0$!
0%
0%!
bx &
bx &!
0'
0'!
x(
0(!
0)
b0 )!
bx *
b0 *!
0+
b0 +!
bx ,
0,!
1-
x-!
b1 .
x.!
0/
x/!
00
00!
11
x1!
02
x2!
bx 3
x3!
04
04!
05
x5!
06
x6!
bx 7
x7!
x8
08!
bx 9
b11 9!
bx :
b11 :!
bx ;
b10 ;!
bx <
b10 <!
x=
bx =!
bx >
bx >!
bx ?
bx ?!
bx @
bx @!
b1001011000 A
bx A!
b11111111111111111011000111100000 B
bx B!
b11111111111111111011000111100001 C
bx C!
b1 D
0D!
b1 E
0E!
b1001011000 F
bx F!
b0 G
bx G!
0H
0H!
bx I
bx I!
0J
bx J!
0K
b10000 K!
b11110100001001000000 L
b1001011000 L!
0M
bx M!
bx N
bx N!
0O
bx O!
bx P
b1 P!
xQ
bx Q!
0R
bx R!
bx S
1T
b1 U
0V
1W
bx X
xY
bx Z
bx [
bx \
x]
bx ^
bx _
0`
0a
0b
b0 c
0d
0e
0f
b0 g
1h
b0 i
b0 j
bx k
1l
b0 m
bx n
b0 o
1p
b0 q
0r
bx s
b10 t
b0 u
bx v
0w
0x
b10 y
b0 z
0{
0|
0}
x~
$end
#5000
0!!
0"!
1#
b0 #!
b10000 $
0$!
1%
0%!
b1001011000 &
0'!
0(!
b0 )!
b0 *!
0+
b0 +!
0-!
x.!
x/!
01!
x2!
x3!
15
05!
x6!
b0 7
x7!
18
b11 9!
bx ;
b10 ;!
b0 <
1=
b0 >
b0 ?
bx @
0D!
1E!
bx F!
1H!
bx I!
b11110100001000111111 L
1M
b10000 N
1O
b1001011000 P
b0 X
1Y
bx Z
bx [
b0 \
1]
b0 ^
b0 _
1`
b1001011000 n
0r
b10 t
b0 u
0w
0x
b10 y
0}
0~
#10000
05
0E!
0H!
0`
#15000
1!
0"
1'
0'!
0(!
0+
0-!
0.!
x/!
01!
02!
x3!
15
05!
16
06!
x7!
b1001011000 9
b11 9!
b10 ;!
bx @
0D!
1E!
bx F!
1H!
b0 I!
b11110100001000111110 L
b0 X
1Y
b1001011000 Z
bx [
b0 \
1]
b0 ^
b0 _
1`
1a
0r
b0 t
b1 u
1w
b0 y
b0 z
0{
0}
0~
#20000
05
0E!
0H!
0`
#25000
0!
1"
0'!
0(!
0-!
0.!
0/!
01!
02!
03!
15
05!
06!
07!
b11 9!
b10 ;!
b10 <!
bx B!
0D!
1E!
bx F!
1H!
b0 I!
b11110100001000111101 L
b0 X
1Y
b1001011000 Z
bx [
b0 \
1]
b0 ^
b0 _
1`
b111111110000 k
b0 m
0r
b1 t
b0 u
b10000 v
0w
1x
b0 y
0}
0~
#30000
05
0E!
0H!
0`
#35000
1!
0!!
0"
0#
b1001011000 #!
0%
0'!
0(!
0-!
0.!
0/!
01!
02!
03!
15
05!
06!
07!
b11 9!
b111111110000 :
b10 ;!
0D!
1E!
bx F!
1H!
b0 I
b0 I!
b100000 K!
b11110100001000111100 L
b0 L!
0M
0O
b0 X
1Y
b1001011000 Z
b111111110000 [
b0 \
1]
b0 ^
b0 _
1`
b1001011000 c
bx k
b0 m
0r
b0 t
b0 u
0w
0x
b0 y
0}
0~
#40000
05
0E!
0H!
0`
#45000
1#
b100000 $
1%
b0 &
0'!
0(!
0-!
0.!
0/!
01!
02!
03!
15
05!
06!
07!
b11 9!
bx :
bx ;
b10 ;!
0D!
1E!
b111111110000 F!
1H!
b0 I!
b11110100001000111011 L
1M
b100000 N
1O
b0 P
b0 X
1Y
b1001011000 Z
bx [
b0 \
1]
b0 ^
b0 _
1`
b0 n
0r
b0 t
b1 u
1w
0x
b0 y
0}
0~
#50000
05
0E!
0H!
0`
#55000
0!
1!!
1"
0'!
0(!
0-!
0.!
0/!
01!
02!
03!
15
05!
06!
07!
b0 9
b11 9!
bx ;
b10 ;!
0D!
1E!
bx F!
1H!
b0 I!
b11110100001000111010 L
b0 X
1Y
b0 Z
bx [
b0 \
1]
b0 ^
b0 _
1`
b0 k
b1111 m
0r
b1 t
b0 u
b100000 v
0w
1x
b0 y
0}
0~
#60000
05
0E!
0H!
0`
#65000
1!
0!!
0"
0#
0%
0'!
0(!
0-!
0.!
0/!
01!
02!
03!
15
05!
06!
b1111 7
07!
b11 9!
b0 :
b10 ;!
0D!
1E!
bx F!
1H!
b1 I
b0 I!
b100100 K!
b11110100001000111001 L
b11111111111111111111111111110110 L!
0M
0O
b1111 X
1Y
b0 Z
b0 [
b0 \
1]
b0 ^
b0 _
1`
bx k
b0 m
0r
b0 t
b0 u
0w
0x
b0 y
0}
0~
#70000
05
0E!
0H!
0`
#75000
1#
b100100 $
1%
b11111111111111111111111111110110 &
0'!
0(!
0-!
0.!
0/!
01!
02!
03!
15
05!
06!
b0 7
07!
b11 9!
bx :
b0 ;
b10 ;!
0D!
1E!
b0 F!
1H!
b0 I!
b11110100001000111000 L
1M
b100100 N
1O
b11111111111111111111111111110110 P
b0 X
1Y
b0 Z
bx [
b0 \
1]
b0 ^
b0 _
1`
b11111111111111111111111111110110 n
0r
b0 t
b1 u
1w
0x
b0 y
0}
0~
#80000
05
0E!
0H!
0`
#85000
0!
1!!
1"
0'!
0(!
0-!
0.!
0/!
01!
02!
03!
15
05!
06!
07!
b11111111111111111111111111110110 9
b11 9!
bx ;
b10 ;!
0D!
1E!
bx F!
1H!
b0 I!
b11110100001000110111 L
b0 X
1Y
b11111111111111111111111111110110 Z
bx [
b0 \
1]
b0 ^
b0 _
1`
b100 k
b1111 m
0r
b1 t
b0 u
b100100 v
0w
1x
b0 y
0}
0~
#90000
05
0E!
0H!
0`
#95000
1!
0!!
0"
0#
0%
0'!
0(!
0-!
0.!
0/!
01!
02!
03!
15
05!
06!
b1111 7
07!
b11 9!
b100 :
b10 ;!
0D!
1E!
bx F!
1H!
b10 I
b0 I!
b101000 K!
b11110100001000110110 L
b11111111111111111111111111110111 L!
0M
0O
b1111 X
1Y
b11111111111111111111111111110110 Z
b100 [
b0 \
1]
b0 ^
b0 _
1`
bx k
b0 m
0r
b0 t
b0 u
0w
0x
b0 y
0}
0~
#100000
05
0E!
0H!
0`
#105000
1#
b101000 $
1%
b11111111111111111111111111110111 &
0'!
0(!
0-!
0.!
0/!
01!
02!
03!
15
05!
06!
b0 7
07!
b11 9!
bx :
b11111111111111111111111111110110 ;
b10 ;!
0D!
1E!
b100 F!
1H!
b0 I!
b11110100001000110101 L
1M
b101000 N
1O
b11111111111111111111111111110111 P
b0 X
1Y
b11111111111111111111111111110110 Z
bx [
b0 \
1]
b0 ^
b0 _
1`
b11111111111111111111111111110111 n
0r
b0 t
b1 u
1w
0x
b0 y
0}
0~
#110000
05
0E!
0H!
0`
#115000
0!
1!!
1"
0'!
0(!
0-!
0.!
0/!
01!
02!
03!
15
05!
06!
07!
b11111111111111111111111111110111 9
b11 9!
bx ;
b10 ;!
0D!
1E!
bx F!
1H!
b0 I!
b11110100001000110100 L
b0 X
1Y
b11111111111111111111111111110111 Z
bx [
b0 \
1]
b0 ^
b0 _
1`
b1000 k
b1111 m
0r
b1 t
b0 u
b101000 v
0w
1x
b0 y
0}
0~
#120000
05
0E!
0H!
0`
#125000
1!
0!!
0"
0#
0%
0'!
0(!
0-!
0.!
0/!
01!
02!
03!
15
05!
06!
b1111 7
07!
b11 9!
b1000 :
b10 ;!
0D!
1E!
bx F!
1H!
b11 I
b0 I!
b101100 K!
b11110100001000110011 L
b10111 L!
0M
0O
b1111 X
1Y
b11111111111111111111111111110111 Z
b1000 [
b0 \
1]
b0 ^
b0 _
1`
bx k
b0 m
0r
b0 t
b0 u
0w
0x
b0 y
0}
0~
#130000
05
0E!
0H!
0`
#135000
1#
b101100 $
1%
b10111 &
0'!
0(!
0-!
0.!
0/!
01!
02!
03!
15
05!
06!
b0 7
07!
b11 9!
bx :
b11111111111111111111111111110111 ;
b10 ;!
0D!
1E!
b1000 F!
1H!
b0 I!
b11110100001000110010 L
1M
b101100 N
1O
b10111 P
b0 X
1Y
b11111111111111111111111111110111 Z
bx [
b0 \
1]
b0 ^
b0 _
1`
b10111 n
0r
b0 t
b1 u
1w
0x
b0 y
0}
0~
#140000
05
0E!
0H!
0`
#145000
0!
1!!
1"
0'!
0(!
0-!
0.!
0/!
01!
02!
03!
15
05!
06!
07!
b10111 9
b11 9!
bx ;
b10 ;!
0D!
1E!
bx F!
1H!
b0 I!
b11110100001000110001 L
b0 X
1Y
b10111 Z
bx [
b0 \
1]
b0 ^
b0 _
1`
b1100 k
b1111 m
0r
b1 t
b0 u
b101100 v
0w
1x
b0 y
0}
0~
#150000
05
0E!
0H!
0`
#155000
1!
0!!
0"
0#
0%
0'!
0(!
0-!
0.!
0/!
01!
02!
03!
15
05!
06!
b1111 7
07!
b11 9!
b1100 :
b10 ;!
0D!
1E!
bx F!
1H!
b100 I
b0 I!
b110000 K!
b11110100001000110000 L
b111000 L!
0M
0O
b1111 X
1Y
b10111 Z
b1100 [
b0 \
1]
b0 ^
b0 _
1`
bx k
b0 m
0r
b0 t
b0 u
0w
0x
b0 y
0}
0~
#160000
05
0E!
0H!
0`
#165000
1#
b110000 $
1%
b111000 &
0'!
0(!
0-!
0.!
0/!
01!
02!
03!
15
05!
06!
b0 7
07!
b11 9!
bx :
b10111 ;
b10 ;!
0D!
1E!
b1100 F!
1H!
b0 I!
b11110100001000101111 L
1M
b110000 N
1O
b111000 P
b0 X
1Y
b10111 Z
bx [
b0 \
1]
b0 ^
b0 _
1`
b111000 n
0r
b0 t
b1 u
1w
0x
b0 y
0}
0~
#170000
05
0E!
0H!
0`
#175000
0!
1!!
1"
0'!
0(!
0-!
0.!
0/!
01!
02!
03!
15
05!
06!
07!
b111000 9
b11 9!
bx ;
b10 ;!
0D!
1E!
bx F!
1H!
b0 I!
b11110100001000101110 L
b0 X
1Y
b111000 Z
bx [
b0 \
1]
b0 ^
b0 _
1`
b10000 k
b1111 m
0r
b1 t
b0 u
b110000 v
0w
1x
b0 y
0}
0~
#180000
05
0E!
0H!
0`
#185000
1!
0!!
0"
0#
0%
0'!
0(!
0-!
0.!
0/!
01!
02!
03!
15
05!
06!
b1111 7
07!
b11 9!
b10000 :
b10 ;!
0D!
1E!
bx F!
1H!
b101 I
b0 I!
b110100 K!
b11110100001000101101 L
b111111 L!
0M
0O
b1111 X
1Y
b111000 Z
b10000 [
b0 \
1]
b0 ^
b0 _
1`
bx k
b0 m
0r
b0 t
b0 u
0w
0x
b0 y
0}
0~
#190000
05
0E!
0H!
0`
#195000
1#
b110100 $
1%
b111111 &
0'!
0(!
0-!
0.!
0/!
01!
02!
03!
15
05!
06!
b0 7
07!
b11 9!
bx :
b111000 ;
b10 ;!
0D!
1E!
b10000 F!
1H!
b0 I!
b11110100001000101100 L
1M
b110100 N
1O
b111111 P
b0 X
1Y
b111000 Z
bx [
b0 \
1]
b0 ^
b0 _
1`
b111111 n
0r
b0 t
b1 u
1w
0x
b0 y
0}
0~
#200000
05
0E!
0H!
0`
#205000
0!
1!!
1"
0'!
0(!
0-!
0.!
0/!
01!
02!
03!
15
05!
06!
07!
b111111 9
b11 9!
bx ;
b10 ;!
0D!
1E!
bx F!
1H!
b0 I!
b11110100001000101011 L
b0 X
1Y
b111111 Z
bx [
b0 \
1]
b0 ^
b0 _
1`
b10100 k
b1111 m
0r
b1 t
b0 u
b110100 v
0w
1x
b0 y
0}
0~
#210000
05
0E!
0H!
0`
#215000
1!
0!!
0"
0#
0%
0'!
0(!
0-!
0.!
0/!
01!
02!
03!
15
05!
06!
b1111 7
07!
b11 9!
b10100 :
b10 ;!
0D!
1E!
bx F!
1H!
b110 I
b0 I!
b111000 K!
b11110100001000101010 L
b111000 L!
0M
0O
b1111 X
1Y
b111111 Z
b10100 [
b0 \
1]
b0 ^
b0 _
1`
bx k
b0 m
0r
b0 t
b0 u
0w
0x
b0 y
0}
0~
#220000
05
0E!
0H!
0`
#225000
1#
b111000 $
1%
b111000 &
0'!
0(!
0-!
0.!
0/!
01!
02!
03!
15
05!
06!
b0 7
07!
b11 9!
bx :
b111111 ;
b10 ;!
0D!
1E!
b10100 F!
1H!
b0 I!
b11110100001000101001 L
1M
b111000 N
1O
b111000 P
b0 X
1Y
b111111 Z
bx [
b0 \
1]
b0 ^
b0 _
1`
b111000 n
0r
b0 t
b1 u
1w
0x
b0 y
0}
0~
#230000
05
0E!
0H!
0`
#235000
0!
1!!
1"
0'!
0(!
0-!
0.!
0/!
01!
02!
03!
15
05!
06!
07!
b111000 9
b11 9!
bx ;
b10 ;!
0D!
1E!
bx F!
1H!
b0 I!
b11110100001000101000 L
b0 X
1Y
b111000 Z
bx [
b0 \
1]
b0 ^
b0 _
1`
b11000 k
b1111 m
0r
b1 t
b0 u
b111000 v
0w
1x
b0 y
0}
0~
#240000
05
0E!
0H!
0`
#245000
1!
0!!
0"
0#
0%
0'!
0(!
0-!
0.!
0/!
01!
02!
03!
15
05!
06!
b1111 7
07!
b11 9!
b11000 :
b10 ;!
0D!
1E!
bx F!
1H!
b111 I
b0 I!
b111100 K!
b11110100001000100111 L
b10111 L!
0M
0O
b1111 X
1Y
b111000 Z
b11000 [
b0 \
1]
b0 ^
b0 _
1`
bx k
b0 m
0r
b0 t
b0 u
0w
0x
b0 y
0}
0~
#250000
05
0E!
0H!
0`
#255000
1#
b111100 $
1%
b10111 &
0'!
0(!
0-!
0.!
0/!
01!
02!
03!
15
05!
06!
b0 7
07!
b11 9!
bx :
b111000 ;
b10 ;!
0D!
1E!
b11000 F!
1H!
b0 I!
b11110100001000100110 L
1M
b111100 N
1O
b10111 P
b0 X
1Y
b111000 Z
bx [
b0 \
1]
b0 ^
b0 _
1`
b10111 n
0r
b0 t
b1 u
1w
0x
b0 y
0}
0~
#260000
05
0E!
0H!
0`
#265000
0!
1!!
1"
0'!
0(!
0-!
0.!
0/!
01!
02!
03!
15
05!
06!
07!
b10111 9
b11 9!
bx ;
b10 ;!
0D!
1E!
bx F!
1H!
b0 I!
b11110100001000100101 L
b0 X
1Y
b10111 Z
bx [
b0 \
1]
b0 ^
b0 _
1`
b11100 k
b1111 m
0r
b1 t
b0 u
b111100 v
0w
1x
b0 y
0}
0~
#270000
05
0E!
0H!
0`
#275000
1!
0!!
0"
0#
0%
0'!
0(!
0-!
0.!
0/!
01!
02!
03!
15
05!
06!
b1111 7
07!
b11 9!
b11100 :
b10 ;!
0D!
1E!
bx F!
1H!
b1000 I
b0 I!
b1000000 K!
b11110100001000100100 L
b11111111111111111111111111110111 L!
0M
0O
b1111 X
1Y
b10111 Z
b11100 [
b0 \
1]
b0 ^
b0 _
1`
bx k
b0 m
0r
b0 t
b0 u
0w
0x
b0 y
0}
0~
#280000
05
0E!
0H!
0`
#285000
1#
b1000000 $
1%
b11111111111111111111111111110111 &
0'!
0(!
0-!
0.!
0/!
01!
02!
03!
15
05!
06!
b0 7
07!
b11 9!
bx :
b10111 ;
b10 ;!
0D!
1E!
b11100 F!
1H!
b0 I!
b11110100001000100011 L
1M
b1000000 N
1O
b11111111111111111111111111110111 P
b0 X
1Y
b10111 Z
bx [
b0 \
1]
b0 ^
b0 _
1`
b11111111111111111111111111110111 n
0r
b0 t
b1 u
1w
0x
b0 y
0}
0~
#290000
05
0E!
0H!
0`
#295000
0!
1!!
1"
0'!
0(!
0-!
0.!
0/!
01!
02!
03!
15
05!
06!
07!
b11111111111111111111111111110111 9
b11 9!
bx ;
b10 ;!
0D!
1E!
bx F!
1H!
b0 I!
b11110100001000100010 L
b0 X
1Y
b11111111111111111111111111110111 Z
bx [
b0 \
1]
b0 ^
b0 _
1`
b100000 k
b1111 m
0r
b1 t
b0 u
b1000000 v
0w
1x
b0 y
0}
0~
#300000
05
0E!
0H!
0`
#305000
1!
0!!
0"
0#
0%
0'!
0(!
0-!
0.!
0/!
01!
02!
03!
15
05!
06!
b1111 7
07!
b11 9!
b100000 :
b10 ;!
0D!
1E!
bx F!
1H!
b1001 I
b0 I!
b1000100 K!
b11110100001000100001 L
b11111111111111111111111111110110 L!
0M
0O
b1111 X
1Y
b11111111111111111111111111110111 Z
b100000 [
b0 \
1]
b0 ^
b0 _
1`
bx k
b0 m
0r
b0 t
b0 u
0w
0x
b0 y
0}
0~
#310000
05
0E!
0H!
0`
#315000
1#
b1000100 $
1%
b11111111111111111111111111110110 &
0'!
0(!
0-!
0.!
0/!
01!
02!
03!
15
05!
06!
b0 7
07!
b11 9!
bx :
b11111111111111111111111111110111 ;
b10 ;!
0D!
1E!
b100000 F!
1H!
b0 I!
b11110100001000100000 L
1M
b1000100 N
1O
b11111111111111111111111111110110 P
b0 X
1Y
b11111111111111111111111111110111 Z
bx [
b0 \
1]
b0 ^
b0 _
1`
b11111111111111111111111111110110 n
0r
b0 t
b1 u
1w
0x
b0 y
0}
0~
#320000
05
0E!
0H!
0`
#325000
0!
1!!
1"
0'!
0(!
0-!
0.!
0/!
01!
02!
03!
15
05!
06!
07!
b11111111111111111111111111110110 9
b11 9!
bx ;
b10 ;!
0D!
1E!
bx F!
1H!
b0 I!
b11110100001000011111 L
b0 X
1Y
b11111111111111111111111111110110 Z
bx [
b0 \
1]
b0 ^
b0 _
1`
b100100 k
b1111 m
0r
b1 t
b0 u
b1000100 v
0w
1x
b0 y
0}
0~
#330000
05
0E!
0H!
0`
#335000
1!
0!!
0"
0#
0%
0'!
0(!
0-!
0.!
0/!
01!
02!
03!
15
05!
06!
b1111 7
07!
b11 9!
b100100 :
b10 ;!
0D!
1E!
bx F!
1H!
b1010 I
b0 I!
b1001000 K!
b11110100001000011110 L
b0 L!
0M
0O
b1111 X
1Y
b11111111111111111111111111110110 Z
b100100 [
b0 \
1]
b0 ^
b0 _
1`
bx k
b0 m
0r
b0 t
b0 u
0w
0x
b0 y
0}
0~
#340000
05
0E!
0H!
0`
#345000
1#
b1001000 $
1%
b0 &
0'!
0(!
0-!
0.!
0/!
01!
02!
03!
15
05!
06!
b0 7
07!
b11 9!
bx :
b11111111111111111111111111110110 ;
b10 ;!
0D!
1E!
b100100 F!
1H!
b0 I!
b11110100001000011101 L
1M
b1001000 N
1O
b0 P
b0 X
1Y
b11111111111111111111111111110110 Z
bx [
b0 \
1]
b0 ^
b0 _
1`
b0 n
0r
b0 t
b1 u
1w
0x
b0 y
0}
0~
#350000
05
0E!
0H!
0`
#355000
0!
1!!
1"
0'!
0(!
0-!
0.!
0/!
01!
02!
03!
15
05!
06!
07!
b0 9
b11 9!
bx ;
b10 ;!
0D!
1E!
bx F!
1H!
b0 I!
b11110100001000011100 L
b0 X
1Y
b0 Z
bx [
b0 \
1]
b0 ^
b0 _
1`
b101000 k
b1111 m
0r
b1 t
b0 u
b1001000 v
0w
1x
b0 y
0}
0~
#360000
05
0E!
0H!
0`
#365000
1!
0!!
0"
0#
0%
0'!
0(!
0)
0-!
0.!
0/!
01!
02!
03!
15
05!
06!
b1111 7
07!
b11 9!
b101000 :
b10 ;!
0D!
1E!
bx F!
1H!
b0 I
b0 I!
b11110100001000011011 L
0M
b100000 M!
b0 N!
0O
b11111111111111111111111111111111 O!
b1111 X
1Y
b0 Z
b101000 [
b0 \
1]
b0 ^
b0 _
1`
bx k
b0 m
0r
b0 t
b0 u
0w
0x
b0 y
0}
0~
#370000
05
0E!
0H!
0`
#375000
0"
0'!
1(
0(!
1)
b100000 *
0-!
0.!
0/!
01!
02!
03!
15
05!
06!
b0 7
07!
b11 9!
bx :
b0 ;
b10 ;!
0D!
1E!
b101000 F!
1H!
b0 I!
b11110100001000011010 L
1Q
1R
b100000 S
b0 X
1Y
b0 Z
bx [
b0 \
1]
b0 ^
b0 _
1`
b0 k
0r
b0 t
b0 y
b1 z
1{
0|
0}
0~
#380000
05
0E!
0H!
0`
#385000
0"
0'
0'!
0(!
0+
b0 ,
0-!
0.!
0/!
01!
02!
03!
15
05!
06!
07!
b11 9!
b0 :
bx ;
b10 ;!
0D!
1E!
bx F!
1H!
b0 I!
b11110100001000011001 L
b0 X
1Y
b0 Z
b0 [
b0 \
1]
b0 ^
b0 _
1`
0r
b0 s
b0 t
b1 y
b1 z
0{
1}
0~
#390000
05
0E!
0H!
0`
#395000
0'!
0(!
0+
0-!
0.!
0/!
01!
02!
03!
15
05!
06!
07!
b11 9!
b0 ;
b10 ;!
0D!
1E!
b0 F!
1H!
b0 I!
b11110100001000011000 L
b0 X
1Y
b0 Z
b0 [
b0 \
1]
b0 ^
b0 _
1`
0r
b0 t
b1 y
0}
1~
#400000
05
0E!
0H!
0`
#405000
0'!
0(!
1+
0-!
0.!
0/!
01!
02!
03!
15
05!
06!
07!
b11 9!
b10 ;!
0D!
1E!
b0 F!
1H!
b0 I!
b11110100001000010111 L
b0 X
1Y
b0 Z
b0 [
b0 \
1]
b0 ^
b0 _
1`
0r
b0 s
b0 t
b1 y
b0 z
1|
0}
0~
#410000
05
0E!
0H!
0`
