lab-fir/fir/fir.vcd
$date
   Thu Oct 19 20:13:28 2023
$end
$version
  2022.1
$end
$timescale
  1ps
$end
$scope module fir_tb $end
$var wire 1 ! awready $end
$var wire 1 " wready $end
$var reg 1 # awvalid $end
$var reg 12 $ awaddr [11:0] $end
$var reg 1 % wvalid $end
$var reg 32 & wdata [31:0] $end
$var wire 1 ' arready $end
$var reg 1 ( rready $end
$var reg 1 ) arvalid $end
$var reg 12 * araddr [11:0] $end
$var wire 1 + rvalid $end
$var wire 32 , rdata [31:0] $end
$var reg 1 - ss_tvalid $end
$var reg 32 . ss_tdata [31:0] $end
$var reg 1 / ss_tlast $end
$var wire 1 0 ss_tready $end
$var reg 1 1 sm_tready $end
$var wire 1 2 sm_tvalid $end
$var wire 32 3 sm_tdata [31:0] $end
$var wire 1 4 sm_tlast $end
$var reg 1 5 axis_clk $end
$var reg 1 6 axis_rst_n $end
$var wire 4 7 tap_WE [3:0] $end
$var wire 1 8 tap_EN $end
$var wire 32 9 tap_Di [31:0] $end
$var wire 12 : tap_A [11:0] $end
$var wire 32 ; tap_Do [31:0] $end
$var wire 4 < data_WE [3:0] $end
$var wire 1 = data_EN $end
$var wire 32 > data_Di [31:0] $end
$var wire 12 ? data_A [11:0] $end
$var wire 32 @ data_Do [31:0] $end
$var reg 32 A data_length [31:0] $end
$var integer 32 B Din [31:0] $end
$var integer 32 C golden [31:0] $end
$var integer 32 D input_data [31:0] $end
$var integer 32 E golden_data [31:0] $end
$var integer 32 F m [31:0] $end
$var integer 32 G i [31:0] $end
$var reg 1 H error_coef $end
$var integer 32 I k [31:0] $end
$var reg 1 J error $end
$var integer 32 K timeout [31:0] $end
$scope module fir_DUT $end
$var wire 1 ! awready $end
$var wire 1 " wready $end
$var wire 1 L awvalid $end
$var wire 12 M awaddr [11:0] $end
$var wire 1 N wvalid $end
$var wire 32 O wdata [31:0] $end
$var wire 1 ' arready $end
$var wire 1 P rready $end
$var wire 1 Q arvalid $end
$var wire 12 R araddr [11:0] $end
$var wire 1 + rvalid $end
$var wire 32 , rdata [31:0] $end
$var wire 1 S ss_tvalid $end
$var wire 32 T ss_tdata [31:0] $end
$var wire 1 U ss_tlast $end
$var wire 1 0 ss_tready $end
$var wire 1 V sm_tready $end
$var wire 1 2 sm_tvalid $end
$var wire 32 3 sm_tdata [31:0] $end
$var wire 1 4 sm_tlast $end
$var reg 4 W tap_WE [3:0] $end
$var reg 1 X tap_EN $end
$var reg 32 Y tap_Di [31:0] $end
$var reg 12 Z tap_A [11:0] $end
$var wire 32 ; tap_Do [31:0] $end
$var reg 4 [ data_WE [3:0] $end
$var reg 1 \ data_EN $end
$var reg 32 ] data_Di [31:0] $end
$var reg 12 ^ data_A [11:0] $end
$var wire 32 @ data_Do [31:0] $end
$var wire 1 _ axis_clk $end
$var wire 1 ` axis_rst_n $end
$var wire 1 a \genblk1.ap_start  $end
$var wire 32 b \genblk1.XferLength  [31:0] $end
$var wire 1 c \genblk1.ap_done  $end
$var wire 1 d \genblk1.ap_idle  $end
$var wire 1 e \genblk1.reset_ap_start  $end
$var wire 12 f \genblk1.data_A_Xferloop  [11:0] $end
$var wire 1 g \genblk1.data_EN_Xferloop  $end
$var wire 4 h \genblk1.data_WE_Xferloop  [3:0] $end
$var wire 32 i \genblk1.data_Di_Xferloop  [31:0] $end
$var wire 12 j \genblk1.tap_A_axi_lite  [11:0] $end
$var wire 1 k \genblk1.tap_EN_axi_lite  $end
$var wire 4 l \genblk1.tap_WE_axi_lite  [3:0] $end
$var wire 32 m \genblk1.tap_Di_axi_lite  [31:0] $end
$var wire 12 n \genblk1.tap_A_Xferloop  [11:0] $end
$var wire 1 o \genblk1.tap_EN_Xferloop  $end
$var wire 4 p \genblk1.tap_WE_Xferloop  [3:0] $end
$var reg 1 q \genblk1.ss_running  $end
$scope module genblk1.axi_lite_control_U0 $end
$var wire 1 _ clk $end
$var wire 1 ` rst_n $end
$var wire 1 L awvalid $end
$var wire 12 M awaddr [11:0] $end
$var wire 1 N wvalid $end
$var wire 32 O wdata [31:0] $end
$var wire 1 Q arvalid $end
$var wire 12 R araddr [11:0] $end
$var wire 1 P rready $end
$var wire 1 ! awready $end
$var wire 1 " wready $end
$var wire 1 ' arready $end
$var wire 1 + rvalid $end
$var reg 32 r rdata [31:0] $end
$var wire 32 b XferLength [31:0] $end
$var wire 4 l tap_WE [3:0] $end
$var wire 1 k tap_EN $end
$var wire 32 m tap_Di [31:0] $end
$var wire 12 j tap_A [11:0] $end
$var wire 32 ; tap_Do [31:0] $end
$var wire 1 a ap_start $end
$var wire 1 e reset_ap_start $end
$var wire 1 c ap_done $end
$var wire 1 d ap_idle $end
$var reg 2 s wstate_r [1:0] $end
$var reg 2 t wstate_w [1:0] $end
$var reg 12 u waddr_r [11:0] $end
$var wire 1 v aw_hs $end
$var wire 1 w w_hs $end
$var reg 2 x rstate_r [1:0] $end
$var reg 2 y rstate_w [1:0] $end
$var wire 1 z ar_hs $end
$var wire 1 { r_hs $end
$var reg 1 | an32Coef_read_r $end
$var reg 1 } an32Coef_read_r_d1 $end
$var reg 1 ~ an32Coef_write_r $end
$var reg 1 !! ap_start_r $end
$var reg 32 "! XferLeng_r [31:0] $end
$var reg 1 #! ap_done_r $end
$var reg 1 $! ap_idle_r $end
$upscope $end
$scope module genblk1.Xferloop_U0 $end
$var wire 1 _ clk $end
$var wire 1 ` rst_n $end
$var wire 1 S ss_tvalid $end
$var wire 32 T ss_tdata [31:0] $end
$var wire 1 U ss_tlast $end
$var wire 1 0 ss_tready $end
$var wire 1 V sm_tready $end
$var wire 1 2 sm_tvalid $end
$var reg 32 %! sm_tdata [31:0] $end
$var wire 1 4 sm_tlast $end
$var wire 32 b XferLength [31:0] $end
$var wire 4 h data_WE [3:0] $end
$var wire 1 g data_EN $end
$var wire 32 i data_Di [31:0] $end
$var wire 12 f data_A [11:0] $end
$var wire 32 @ data_Do [31:0] $end
$var wire 4 p tap_WE [3:0] $end
$var wire 1 o tap_EN $end
$var wire 12 n tap_A [11:0] $end
$var wire 32 ; tap_Do [31:0] $end
$var wire 1 a ap_start $end
$var reg 1 &! reset_ap_start $end
$var wire 1 c ap_done $end
$var reg 1 '! ap_idle $end
$var reg 4 (! cnt_r [3:0] $end
$var reg 4 )! shift_r [3:0] $end
$var reg 10 *! sm_hs_cnt_r [9:0] $end
$var wire 1 +! ss_hs $end
$var reg 1 ,! ss_hs_d1 $end
$var reg 1 -! ss_hs_d2 $end
$var reg 1 .! ss_hs_d3 $end
$var wire 1 /! ss_data $end
$var reg 1 0! ss_data_d1 $end
$var reg 1 1! ss_data_d2 $end
$var reg 1 2! ss_data_d3 $end
$var wire 1 3! data_11 $end
$var reg 1 4! data_11_d1 $end
$var reg 1 5! data_11_d2 $end
$var reg 1 6! data_11_d3 $end
$var wire 1 7! sm_hs $end
$var reg 2 8! ss_state_r [1:0] $end
$var reg 2 9! ss_state_w [1:0] $end
$var reg 2 :! sm_state_r [1:0] $end
$var reg 2 ;! sm_state_w [1:0] $end
$var reg 32 <! ss_tdata_d1 [31:0] $end
$var reg 32 =! ss_tdata_d2 [31:0] $end
$var reg 32 >! data [31:0] $end
$var reg 32 ?! tap [31:0] $end
$var reg 32 @! acc [31:0] $end
$var reg 32 A! acc_w [31:0] $end
$var wire 64 B! mul [63:0] $end
$var reg 1 C! last_data $end
$upscope $end
$upscope $end
$scope module tap_RAM $end
$var wire 1 D! CLK $end
$var wire 4 7 WE [3:0] $end
$var wire 1 8 EN $end
$var wire 32 9 Di [31:0] $end
$var wire 32 ; Do [31:0] $end
$var wire 12 : A [11:0] $end
$var reg 12 E! r_A [11:0] $end
$upscope $end
$scope module data_RAM $end
$var wire 1 F! CLK $end
$var wire 4 < WE [3:0] $end
$var wire 1 = EN $end
$var wire 32 > Di [31:0] $end
$var wire 32 @ Do [31:0] $end
$var wire 12 ? A [11:0] $end
$var reg 12 G! r_A [11:0] $end
$upscope $end
$scope task config_write $end
$var reg 12 H! addr [11:0] $end
$var reg 32 I! data [31:0] $end
$upscope $end
$scope task config_read_check $end
$var reg 12 J! addr [11:0] $end
$var reg 32 K! exp_data [31:0] $end
$var reg 32 L! mask [31:0] $end
$upscope $end
$scope task ss $end
$var reg 32 M! in1 [31:0] $end
$upscope $end
$scope task sm $end
$var reg 32 N! in2 [31:0] $end
$var reg 32 O! pcnt [31:0] $end
$upscope $end
$upscope $end
$enddefinitions $end
#0
$dumpvars
0!
0!!
0"
b0 "!
0#
0#!
bx $
0$!
0%
bx %!
bx &
0&!
0'
0'!
x(
b0 (!
0)
b0 )!
bx *
b0 *!
0+
0+!
bx ,
x,!
1-
x-!
b1 .
x.!
0/
0/!
00
x0!
11
x1!
02
x2!
bx 3
03!
04
x4!
05
x5!
06
x6!
bx 7
07!
x8
b11 8!
bx 9
b11 9!
bx :
b10 :!
bx ;
b10 ;!
bx <
bx <!
x=
bx =!
bx >
bx >!
bx ?
bx ?!
bx @
bx @!
b1001011000 A
bx A!
b11111111111111111011000111100000 B
bx B!
b11111111111111111011000111100001 C
0C!
b1 D
0D!
b1 E
bx E!
b1001011000 F
0F!
b0 G
bx G!
0H
b10000 H!
bx I
b1001011000 I!
0J
bx J!
b11110100001001000000 K
bx K!
0L
bx L!
bx M
b1 M!
0N
bx N!
bx O
bx O!
xP
0Q
bx R
1S
b1 T
0U
1V
bx W
xX
bx Y
bx Z
bx [
x\
bx ]
bx ^
0_
0`
0a
b0 b
0c
0d
0e
b0 f
1g
b0 h
b0 i
bx j
1k
b0 l
bx m
b0 n
1o
b0 p
0q
bx r
b10 s
b0 t
bx u
0v
0w
b10 x
b0 y
0z
0{
0|
x}
0~
$end
#5000
0!!
b0 "!
1#
0#!
b10000 $
0$!
1%
b1001011000 &
0&!
0'!
b0 (!
b0 )!
b0 *!
0+
0,!
x-!
x.!
00!
x1!
x2!
04!
15
x5!
x6!
b0 7
18
b11 8!
b10 :!
bx ;
b0 <
1=
b0 >
b0 ?
bx @
0C!
1D!
bx E!
1F!
bx G!
b11110100001000111111 K
1L
b10000 M
1N
b1001011000 O
b0 W
1X
bx Y
bx Z
b0 [
1\
b0 ]
b0 ^
1_
b1001011000 m
0q
b10 s
b0 t
0v
0w
b10 x
0|
0}
0~
#10000
05
0D!
0F!
0_
#15000
1!
0"
0&!
1'
0'!
0+
0,!
0-!
x.!
00!
01!
x2!
04!
15
05!
16
x6!
b11 8!
b1001011000 9
b10 :!
bx @
0C!
1D!
bx E!
1F!
b0 G!
b11110100001000111110 K
b0 W
1X
b1001011000 Y
bx Z
b0 [
1\
b0 ]
b0 ^
1_
1`
0q
b0 s
b1 t
1v
b0 x
b0 y
0z
0|
0}
#20000
05
0D!
0F!
0_
#25000
0!
1"
0&!
0'!
0,!
0-!
0.!
00!
01!
02!
04!
15
05!
06!
b11 8!
b10 :!
b10 ;!
bx A!
0C!
1D!
bx E!
1F!
b0 G!
b11110100001000111101 K
b0 W
1X
b1001011000 Y
bx Z
b0 [
1\
b0 ]
b0 ^
1_
b111111110000 j
b0 l
0q
b1 s
b0 t
b10000 u
0v
1w
b0 x
0|
0}
#30000
05
0D!
0F!
0_
#35000
1!
0"
b1001011000 "!
0#
0%
0&!
0'!
0,!
0-!
0.!
00!
01!
02!
04!
15
05!
06!
b11 8!
b111111110000 :
b10 :!
0C!
1D!
bx E!
1F!
b0 G!
b100000 H!
b0 I
b0 I!
b11110100001000111100 K
0L
0N
b0 W
1X
b1001011000 Y
b111111110000 Z
b0 [
1\
b0 ]
b0 ^
1_
b1001011000 b
bx j
b0 l
0q
b0 s
b0 t
0v
0w
b0 x
0|
0}
0~
#40000
05
0D!
0F!
0_
#45000
1#
b100000 $
1%
b0 &
0&!
0'!
0,!
0-!
0.!
00!
01!
02!
04!
15
05!
06!
b11 8!
bx :
b10 :!
bx ;
0C!
1D!
b111111110000 E!
1F!
b0 G!
b11110100001000111011 K
1L
b100000 M
1N
b0 O
b0 W
1X
b1001011000 Y
bx Z
b0 [
1\
b0 ]
b0 ^
1_
b0 m
0q
b0 s
b1 t
1v
0w
b0 x
0|
0}
#50000
05
0D!
0F!
0_
#55000
0!
1"
0&!
0'!
0,!
0-!
0.!
00!
01!
02!
04!
15
05!
06!
b11 8!
b0 9
b10 :!
bx ;
0C!
1D!
bx E!
1F!
b0 G!
b11110100001000111010 K
b0 W
1X
b0 Y
bx Z
b0 [
1\
b0 ]
b0 ^
1_
b0 j
b1111 l
0q
b1 s
b0 t
b100000 u
0v
1w
b0 x
0|
0}
1~
#60000
05
0D!
0F!
0_
#65000
1!
0"
0#
0%
0&!
0'!
0,!
0-!
0.!
00!
01!
02!
04!
15
05!
06!
b1111 7
b11 8!
b0 :
b10 :!
0C!
1D!
bx E!
1F!
b0 G!
b100100 H!
b1 I
b11111111111111111111111111110110 I!
b11110100001000111001 K
0L
0N
b1111 W
1X
b0 Y
b0 Z
b0 [
1\
b0 ]
b0 ^
1_
bx j
b0 l
0q
b0 s
b0 t
0v
0w
b0 x
0|
0}
0~
#70000
05
0D!
0F!
0_
#75000
1#
b100100 $
1%
b11111111111111111111111111110110 &
0&!
0'!
0,!
0-!
0.!
00!
01!
02!
04!
15
05!
06!
b0 7
b11 8!
bx :
b10 :!
b0 ;
0C!
1D!
b0 E!
1F!
b0 G!
b11110100001000111000 K
1L
b100100 M
1N
b11111111111111111111111111110110 O
b0 W
1X
b0 Y
bx Z
b0 [
1\
b0 ]
b0 ^
1_
b11111111111111111111111111110110 m
0q
b0 s
b1 t
1v
0w
b0 x
0|
0}
#80000
05
0D!
0F!
0_
#85000
0!
1"
0&!
0'!
0,!
0-!
0.!
00!
01!
02!
04!
15
05!
06!
b11 8!
b11111111111111111111111111110110 9
b10 :!
bx ;
0C!
1D!
bx E!
1F!
b0 G!
b11110100001000110111 K
b0 W
1X
b11111111111111111111111111110110 Y
bx Z
b0 [
1\
b0 ]
b0 ^
1_
b100 j
b1111 l
0q
b1 s
b0 t
b100100 u
0v
1w
b0 x
0|
0}
1~
#90000
05
0D!
0F!
0_
#95000
1!
0"
0#
0%
0&!
0'!
0,!
0-!
0.!
00!
01!
02!
04!
15
05!
06!
b1111 7
b11 8!
b100 :
b10 :!
0C!
1D!
bx E!
1F!
b0 G!
b101000 H!
b10 I
b11111111111111111111111111110111 I!
b11110100001000110110 K
0L
0N
b1111 W
1X
b11111111111111111111111111110110 Y
b100 Z
b0 [
1\
b0 ]
b0 ^
1_
bx j
b0 l
0q
b0 s
b0 t
0v
0w
b0 x
0|
0}
0~
#100000
05
0D!
0F!
0_
#105000
1#
b101000 $
1%
b11111111111111111111111111110111 &
0&!
0'!
0,!
0-!
0.!
00!
01!
02!
04!
15
05!
06!
b0 7
b11 8!
bx :
b10 :!
b11111111111111111111111111110110 ;
0C!
1D!
b100 E!
1F!
b0 G!
b11110100001000110101 K
1L
b101000 M
1N
b11111111111111111111111111110111 O
b0 W
1X
b11111111111111111111111111110110 Y
bx Z
b0 [
1\
b0 ]
b0 ^
1_
b11111111111111111111111111110111 m
0q
b0 s
b1 t
1v
0w
b0 x
0|
0}
#110000
05
0D!
0F!
0_
#115000
0!
1"
0&!
0'!
0,!
0-!
0.!
00!
01!
02!
04!
15
05!
06!
b11 8!
b11111111111111111111111111110111 9
b10 :!
bx ;
0C!
1D!
bx E!
1F!
b0 G!
b11110100001000110100 K
b0 W
1X
b11111111111111111111111111110111 Y
bx Z
b0 [
1\
b0 ]
b0 ^
1_
b1000 j
b1111 l
0q
b1 s
b0 t
b101000 u
0v
1w
b0 x
0|
0}
1~
#120000
05
0D!
0F!
0_
#125000
1!
0"
0#
0%
0&!
0'!
0,!
0-!
0.!
00!
01!
02!
04!
15
05!
06!
b1111 7
b11 8!
b1000 :
b10 :!
0C!
1D!
bx E!
1F!
b0 G!
b101100 H!
b11 I
b10111 I!
b11110100001000110011 K
0L
0N
b1111 W
1X
b11111111111111111111111111110111 Y
b1000 Z
b0 [
1\
b0 ]
b0 ^
1_
bx j
b0 l
0q
b0 s
b0 t
0v
0w
b0 x
0|
0}
0~
#130000
05
0D!
0F!
0_
#135000
1#
b101100 $
1%
b10111 &
0&!
0'!
0,!
0-!
0.!
00!
01!
02!
04!
15
05!
06!
b0 7
b11 8!
bx :
b10 :!
b11111111111111111111111111110111 ;
0C!
1D!
b1000 E!
1F!
b0 G!
b11110100001000110010 K
1L
b101100 M
1N
b10111 O
b0 W
1X
b11111111111111111111111111110111 Y
bx Z
b0 [
1\
b0 ]
b0 ^
1_
b10111 m
0q
b0 s
b1 t
1v
0w
b0 x
0|
0}
#140000
05
0D!
0F!
0_
#145000
0!
1"
0&!
0'!
0,!
0-!
0.!
00!
01!
02!
04!
15
05!
06!
b11 8!
b10111 9
b10 :!
bx ;
0C!
1D!
bx E!
1F!
b0 G!
b11110100001000110001 K
b0 W
1X
b10111 Y
bx Z
b0 [
1\
b0 ]
b0 ^
1_
b1100 j
b1111 l
0q
b1 s
b0 t
b101100 u
0v
1w
b0 x
0|
0}
1~
#150000
05
0D!
0F!
0_
#155000
1!
0"
0#
0%
0&!
0'!
0,!
0-!
0.!
00!
01!
02!
04!
15
05!
06!
b1111 7
b11 8!
b1100 :
b10 :!
0C!
1D!
bx E!
1F!
b0 G!
b110000 H!
b100 I
b111000 I!
b11110100001000110000 K
0L
0N
b1111 W
1X
b10111 Y
b1100 Z
b0 [
1\
b0 ]
b0 ^
1_
bx j
b0 l
0q
b0 s
b0 t
0v
0w
b0 x
0|
0}
0~
#160000
05
0D!
0F!
0_
#165000
1#
b110000 $
1%
b111000 &
0&!
0'!
0,!
0-!
0.!
00!
01!
02!
04!
15
05!
06!
b0 7
b11 8!
bx :
b10 :!
b10111 ;
0C!
1D!
b1100 E!
1F!
b0 G!
b11110100001000101111 K
1L
b110000 M
1N
b111000 O
b0 W
1X
b10111 Y
bx Z
b0 [
1\
b0 ]
b0 ^
1_
b111000 m
0q
b0 s
b1 t
1v
0w
b0 x
0|
0}
#170000
05
0D!
0F!
0_
#175000
0!
1"
0&!
0'!
0,!
0-!
0.!
00!
01!
02!
04!
15
05!
06!
b11 8!
b111000 9
b10 :!
bx ;
0C!
1D!
bx E!
1F!
b0 G!
b11110100001000101110 K
b0 W
1X
b111000 Y
bx Z
b0 [
1\
b0 ]
b0 ^
1_
b10000 j
b1111 l
0q
b1 s
b0 t
b110000 u
0v
1w
b0 x
0|
0}
1~
#180000
05
0D!
0F!
0_
#185000
1!
0"
0#
0%
0&!
0'!
0,!
0-!
0.!
00!
01!
02!
04!
15
05!
06!
b1111 7
b11 8!
b10000 :
b10 :!
0C!
1D!
bx E!
1F!
b0 G!
b110100 H!
b101 I
b111111 I!
b11110100001000101101 K
0L
0N
b1111 W
1X
b111000 Y
b10000 Z
b0 [
1\
b0 ]
b0 ^
1_
bx j
b0 l
0q
b0 s
b0 t
0v
0w
b0 x
0|
0}
0~
#190000
05
0D!
0F!
0_
#195000
1#
b110100 $
1%
b111111 &
0&!
0'!
0,!
0-!
0.!
00!
01!
02!
04!
15
05!
06!
b0 7
b11 8!
bx :
b10 :!
b111000 ;
0C!
1D!
b10000 E!
1F!
b0 G!
b11110100001000101100 K
1L
b110100 M
1N
b111111 O
b0 W
1X
b111000 Y
bx Z
b0 [
1\
b0 ]
b0 ^
1_
b111111 m
0q
b0 s
b1 t
1v
0w
b0 x
0|
0}
#200000
05
0D!
0F!
0_
#205000
0!
1"
0&!
0'!
0,!
0-!
0.!
00!
01!
02!
04!
15
05!
06!
b11 8!
b111111 9
b10 :!
bx ;
0C!
1D!
bx E!
1F!
b0 G!
b11110100001000101011 K
b0 W
1X
b111111 Y
bx Z
b0 [
1\
b0 ]
b0 ^
1_
b10100 j
b1111 l
0q
b1 s
b0 t
b110100 u
0v
1w
b0 x
0|
0}
1~
#210000
05
0D!
0F!
0_
#215000
1!
0"
0#
0%
0&!
0'!
0,!
0-!
0.!
00!
01!
02!
04!
15
05!
06!
b1111 7
b11 8!
b10100 :
b10 :!
0C!
1D!
bx E!
1F!
b0 G!
b111000 H!
b110 I
b111000 I!
b11110100001000101010 K
0L
0N
b1111 W
1X
b111111 Y
b10100 Z
b0 [
1\
b0 ]
b0 ^
1_
bx j
b0 l
0q
b0 s
b0 t
0v
0w
b0 x
0|
0}
0~
#220000
05
0D!
0F!
0_
#225000
1#
b111000 $
1%
b111000 &
0&!
0'!
0,!
0-!
0.!
00!
01!
02!
04!
15
05!
06!
b0 7
b11 8!
bx :
b10 :!
b111111 ;
0C!
1D!
b10100 E!
1F!
b0 G!
b11110100001000101001 K
1L
b111000 M
1N
b111000 O
b0 W
1X
b111111 Y
bx Z
b0 [
1\
b0 ]
b0 ^
1_
b111000 m
0q
b0 s
b1 t
1v
0w
b0 x
0|
0}
#230000
05
0D!
0F!
0_
#235000
0!
1"
0&!
0'!
0,!
0-!
0.!
00!
01!
02!
04!
15
05!
06!
b11 8!
b111000 9
b10 :!
bx ;
0C!
1D!
bx E!
1F!
b0 G!
b11110100001000101000 K
b0 W
1X
b111000 Y
bx Z
b0 [
1\
b0 ]
b0 ^
1_
b11000 j
b1111 l
0q
b1 s
b0 t
b111000 u
0v
1w
b0 x
0|
0}
1~
#240000
05
0D!
0F!
0_
#245000
1!
0"
0#
0%
0&!
0'!
0,!
0-!
0.!
00!
01!
02!
04!
15
05!
06!
b1111 7
b11 8!
b11000 :
b10 :!
0C!
1D!
bx E!
1F!
b0 G!
b111100 H!
b111 I
b10111 I!
b11110100001000100111 K
0L
0N
b1111 W
1X
b111000 Y
b11000 Z
b0 [
1\
b0 ]
b0 ^
1_
bx j
b0 l
0q
b0 s
b0 t
0v
0w
b0 x
0|
0}
0~
#250000
05
0D!
0F!
0_
#255000
1#
b111100 $
1%
b10111 &
0&!
0'!
0,!
0-!
0.!
00!
01!
02!
04!
15
05!
06!
b0 7
b11 8!
bx :
b10 :!
b111000 ;
0C!
1D!
b11000 E!
1F!
b0 G!
b11110100001000100110 K
1L
b111100 M
1N
b10111 O
b0 W
1X
b111000 Y
bx Z
b0 [
1\
b0 ]
b0 ^
1_
b10111 m
0q
b0 s
b1 t
1v
0w
b0 x
0|
0}
#260000
05
0D!
0F!
0_
#265000
0!
1"
0&!
0'!
0,!
0-!
0.!
00!
01!
02!
04!
15
05!
06!
b11 8!
b10111 9
b10 :!
bx ;
0C!
1D!
bx E!
1F!
b0 G!
b11110100001000100101 K
b0 W
1X
b10111 Y
bx Z
b0 [
1\
b0 ]
b0 ^
1_
b11100 j
b1111 l
0q
b1 s
b0 t
b111100 u
0v
1w
b0 x
0|
0}
1~
#270000
05
0D!
0F!
0_
#275000
1!
0"
0#
0%
0&!
0'!
0,!
0-!
0.!
00!
01!
02!
04!
15
05!
06!
b1111 7
b11 8!
b11100 :
b10 :!
0C!
1D!
bx E!
1F!
b0 G!
b1000000 H!
b1000 I
b11111111111111111111111111110111 I!
b11110100001000100100 K
0L
0N
b1111 W
1X
b10111 Y
b11100 Z
b0 [
1\
b0 ]
b0 ^
1_
bx j
b0 l
0q
b0 s
b0 t
0v
0w
b0 x
0|
0}
0~
#280000
05
0D!
0F!
0_
#285000
1#
b1000000 $
1%
b11111111111111111111111111110111 &
0&!
0'!
0,!
0-!
0.!
00!
01!
02!
04!
15
05!
06!
b0 7
b11 8!
bx :
b10 :!
b10111 ;
0C!
1D!
b11100 E!
1F!
b0 G!
b11110100001000100011 K
1L
b1000000 M
1N
b11111111111111111111111111110111 O
b0 W
1X
b10111 Y
bx Z
b0 [
1\
b0 ]
b0 ^
1_
b11111111111111111111111111110111 m
0q
b0 s
b1 t
1v
0w
b0 x
0|
0}
#290000
05
0D!
0F!
0_
#295000
0!
1"
0&!
0'!
0,!
0-!
0.!
00!
01!
02!
04!
15
05!
06!
b11 8!
b11111111111111111111111111110111 9
b10 :!
bx ;
0C!
1D!
bx E!
1F!
b0 G!
b11110100001000100010 K
b0 W
1X
b11111111111111111111111111110111 Y
bx Z
b0 [
1\
b0 ]
b0 ^
1_
b100000 j
b1111 l
0q
b1 s
b0 t
b1000000 u
0v
1w
b0 x
0|
0}
1~
#300000
05
0D!
0F!
0_
#305000
1!
0"
0#
0%
0&!
0'!
0,!
0-!
0.!
00!
01!
02!
04!
15
05!
06!
b1111 7
b11 8!
b100000 :
b10 :!
0C!
1D!
bx E!
1F!
b0 G!
b1000100 H!
b1001 I
b11111111111111111111111111110110 I!
b11110100001000100001 K
0L
0N
b1111 W
1X
b11111111111111111111111111110111 Y
b100000 Z
b0 [
1\
b0 ]
b0 ^
1_
bx j
b0 l
0q
b0 s
b0 t
0v
0w
b0 x
0|
0}
0~
#310000
05
0D!
0F!
0_
#315000
1#
b1000100 $
1%
b11111111111111111111111111110110 &
0&!
0'!
0,!
0-!
0.!
00!
01!
02!
04!
15
05!
06!
b0 7
b11 8!
bx :
b10 :!
b11111111111111111111111111110111 ;
0C!
1D!
b100000 E!
1F!
b0 G!
b11110100001000100000 K
1L
b1000100 M
1N
b11111111111111111111111111110110 O
b0 W
1X
b11111111111111111111111111110111 Y
bx Z
b0 [
1\
b0 ]
b0 ^
1_
b11111111111111111111111111110110 m
0q
b0 s
b1 t
1v
0w
b0 x
0|
0}
#320000
05
0D!
0F!
0_
#325000
0!
1"
0&!
0'!
0,!
0-!
0.!
00!
01!
02!
04!
15
05!
06!
b11 8!
b11111111111111111111111111110110 9
b10 :!
bx ;
0C!
1D!
bx E!
1F!
b0 G!
b11110100001000011111 K
b0 W
1X
b11111111111111111111111111110110 Y
bx Z
b0 [
1\
b0 ]
b0 ^
1_
b100100 j
b1111 l
0q
b1 s
b0 t
b1000100 u
0v
1w
b0 x
0|
0}
1~
#330000
05
0D!
0F!
0_
#335000
1!
0"
0#
0%
0&!
0'!
0,!
0-!
0.!
00!
01!
02!
04!
15
05!
06!
b1111 7
b11 8!
b100100 :
b10 :!
0C!
1D!
bx E!
1F!
b0 G!
b1001000 H!
b1010 I
b0 I!
b11110100001000011110 K
0L
0N
b1111 W
1X
b11111111111111111111111111110110 Y
b100100 Z
b0 [
1\
b0 ]
b0 ^
1_
bx j
b0 l
0q
b0 s
b0 t
0v
0w
b0 x
0|
0}
0~
#340000
05
0D!
0F!
0_
#345000
1#
b1001000 $
1%
b0 &
0&!
0'!
0,!
0-!
0.!
00!
01!
02!
04!
15
05!
06!
b0 7
b11 8!
bx :
b10 :!
b11111111111111111111111111110110 ;
0C!
1D!
b100100 E!
1F!
b0 G!
b11110100001000011101 K
1L
b1001000 M
1N
b0 O
b0 W
1X
b11111111111111111111111111110110 Y
bx Z
b0 [
1\
b0 ]
b0 ^
1_
b0 m
0q
b0 s
b1 t
1v
0w
b0 x
0|
0}
#350000
05
0D!
0F!
0_
#355000
0!
1"
0&!
0'!
0,!
0-!
0.!
00!
01!
02!
04!
15
05!
06!
b11 8!
b0 9
b10 :!
bx ;
0C!
1D!
bx E!
1F!
b0 G!
b11110100001000011100 K
b0 W
1X
b0 Y
bx Z
b0 [
1\
b0 ]
b0 ^
1_
b101000 j
b1111 l
0q
b1 s
b0 t
b1001000 u
0v
1w
b0 x
0|
0}
1~
#360000
05
0D!
0F!
0_
#365000
1!
0"
0#
0%
0&!
0'!
0)
0,!
0-!
0.!
00!
01!
02!
04!
15
05!
06!
b1111 7
b11 8!
b101000 :
b10 :!
0C!
1D!
bx E!
1F!
b0 G!
b0 I
b100000 J!
b11110100001000011011 K
b0 K!
0L
b11111111111111111111111111111111 L!
0N
b1111 W
1X
b0 Y
b101000 Z
b0 [
1\
b0 ]
b0 ^
1_
bx j
b0 l
0q
b0 s
b0 t
0v
0w
b0 x
0|
0}
0~
#370000
05
0D!
0F!
0_
#375000
0"
0&!
0'!
1(
1)
b100000 *
0,!
0-!
0.!
00!
01!
02!
04!
15
05!
06!
b0 7
b11 8!
bx :
b10 :!
b0 ;
0C!
1D!
b101000 E!
1F!
b0 G!
b11110100001000011010 K
1P
1Q
b100000 R
b0 W
1X
b0 Y
bx Z
b0 [
1\
b0 ]
b0 ^
1_
b0 j
0q
b0 s
b0 x
b1 y
1z
0{
0|
0}
#380000
05
0D!
0F!
0_
#385000
0"
0&!
0'
0'!
0+
b0 ,
0,!
0-!
0.!
00!
01!
02!
04!
15
05!
06!
b11 8!
b0 :
b10 :!
bx ;
0C!
1D!
bx E!
1F!
b0 G!
b11110100001000011001 K
b0 W
1X
b0 Y
b0 Z
b0 [
1\
b0 ]
b0 ^
1_
0q
b0 r
b0 s
b1 x
b1 y
0z
1|
0}
#390000
05
0D!
0F!
0_
#395000
0&!
0'!
0+
0,!
0-!
0.!
00!
01!
02!
04!
15
05!
06!
b11 8!
b10 :!
b0 ;
0C!
1D!
b0 E!
1F!
b0 G!
b11110100001000011000 K
b0 W
1X
b0 Y
b0 Z
b0 [
1\
b0 ]
b0 ^
1_
0q
b0 s
b1 x
0|
1}
#400000
05
0D!
0F!
0_
#405000
0&!
0'!
1+
0,!
0-!
0.!
00!
01!
02!
04!
15
05!
06!
b11 8!
b10 :!
0C!
1D!
b0 E!
1F!
b0 G!
b11110100001000010111 K
b0 W
1X
b0 Y
b0 Z
b0 [
1\
b0 ]
b0 ^
1_
0q
b0 r
b0 s
b1 x
b0 y
1{
0|
0}
#410000
05
0D!
0F!
0_
#415000
0&!
1'
0'!
0)
0+
0,!
0-!
0.!
00!
01!
02!
04!
15
05!
06!
b11 8!
b10 :!
0C!
1D!
b0 E!
1F!
b0 G!
b1 I
b100100 J!
b11110100001000010110 K
b11111111111111111111111111110110 K!
b11111111111111111111111111111111 L!
0Q
b0 W
1X
b0 Y
b0 Z
b0 [
1\
b0 ]
b0 ^
1_
0q
b0 s
b0 x
b0 y
0z
0{
0|
0}
#420000
05
0D!
0F!
0_
